<?xml version="1.0"?>
<svg xmlns="http://www.w3.org/2000/svg" xmlns:xlink="http://www.w3.org/1999/xlink" version="1.1" id="Capa_1" x="0px" y="0px" viewBox="0 0 86.001 86.001" style="enable-background:new 0 0 86.001 86.001;" xml:space="preserve" width="512px" height="512px"><g><g>
	<path d="M5.907,21.004c-1.352-1.338-3.542-1.338-4.894,0c-1.35,1.336-1.352,3.506,0,4.844l39.54,39.15   c1.352,1.338,3.542,1.338,4.894,0l39.54-39.15c1.351-1.338,1.352-3.506,0-4.844c-1.352-1.338-3.542-1.338-4.894-0.002L43,56.707   L5.907,21.004z" data-original="#030104" class="active-path" data-old_color="#289f97" fill="#289f97"/>
</g></g> </svg>
