<svg xmlns="http://www.w3.org/2000/svg" width="24" height="25" viewBox="0 0 24 25">
    <path fill="#289F97" fill-rule="nonzero" d="M9.5 11.4h8v1.24h-11V11.4h3zm0-4h8v1.24h-11V7.4h3zM3.74 3h16.52a.74.74 0 0 1 .74.74v16.52a.74.74 0 0 1-.74.74H3.74a.74.74 0 0 1-.74-.74V3.74A.74.74 0 0 1 3.74 3zm.5 1.24v15.52h15.52V4.24H4.24zM6.5 15.4H14v1.24H6.5V15.4z"/>
</svg>
